/home/johnny/projects/droidstamp/master/imx23/kernel-2.6.35+rootfs/rootfs
date,command,observations
Sat 22 Feb 2020 08:07:53 PM -05,sudo tar xvf rootfs.tar -C /home/johnny/my_sd/ && sync,escribiendo datos en la microsd
