/home/johnny/projects/droidstamp/master/stm32f405/ChibiOS
date,command,observations
Fri 21 Feb 2020 12:02:33 PM -05,7z x ChibiOS_19.1.3.7z,descomprimiendo chibios
Fri 21 Feb 2020 02:41:37 PM -05,sudo mkdir -p /opt/gcc-arm-compile,creando directorio para compiladores
Fri 21 Feb 2020 02:57:10 PM -05,sudo tar xvf gcc-arm-none-eabi-6-2017-q2-update-linux.tar.bz2 -C /opt/gcc-arm-compile/,instalación de cross_compilador
Mon 23 Mar 2020 08:04:24 PM -05,ln -s /home/johnny/projects/droidstamp/master/stm32f405/ChibiOS/ChibiOS_19.1.3 /home/johnny/.chibios,enlace simbolico al chibios
